!!!COM: Corelli, Arcangelo
!!!OPR: Church Sonata in A Major
!!!ONM: Opus 5, No. 9
!!!OTL: Adagio 
!!!OMV: 3
!!!YOR:
!!!AFT: stage1
!!!EED: Frances Bennion
!!!ENC: Frances Bennion
!!!END: 1997/04/15
!!format changes:
!!content changes:
!!public access: complete
!!!CDT: 1653/2/17/-1713/1/8/
!!!OCY: Italia
!!!YEC: Copyright (c) 1994, 2000 Center for Computer Assisted Research in the Humanities
!!!YEM: Rights to all derivative editions reserved.
!!!YEM: Refer to licensing agreement for further details.
!!!YEN: United States of America
!!!KEY: 3831818665
