!!!COM: Corelli, Arcangelo
!!!GTL: Sonate a tre
!!!OPR: Church Sonata in D Minor
!!!ONM: Opus 1, No. 11
!!!OTL:
!!!OMV: 3
!!!YOR: Chrysander Edition
!!!AFT: stage2
!!!EED: Steven Rasmussen
!!!ENC: Steven Rasmussen
!!!END: 1993/09/16
!!format changes:
!!content changes:
!!public access: complete
!!!CDT: 1653/2/17/-1713/1/8/
!!!OCY: Italia
!!!YEC: Copyright (c) 1994, 2000 Center for Computer Assisted Research in the Humanities
!!!YEM: Rights to all derivative editions reserved.
!!!YEM: Refer to licensing agreement for further details.
!!!YEN: United States of America
!!!KEY: 786602068
