!!!COM: Corelli, Arcangelo
!!!GTL: Sonate da camera a tre
!!!OPR: Chamber Sonata in C Major
!!!ONM: Opus 2, No. 3
!!!OTL:
!!!OMV: 3
!!!YOR: Chrysander Edition
!!!AFT: stage2
!!!EED: Walter Hewlett
!!!ENC: Walter Hewlett
!!!END: 1995/01/09
!!format changes:
!!content changes:
!!public access: complete
!!!CDT: 1653/2/17/-1713/1/8/
!!!OCY: Italia
!!!YEC: Copyright (c) 1994, 2000 Center for Computer Assisted Research in the Humanities
!!!YEM: Rights to all derivative editions reserved.
!!!YEM: Refer to licensing agreement for further details.
!!!YEN: United States of America
!!!KEY: 3304645587
