!!!COM: Corelli, Arcangelo
!!!GTL: Sonate a tre
!!!OPR: Church Sonata in A Minor
!!!ONM: Opus 3, No. 10
!!!OTL: Allegro 
!!!OMV: 2
!!!YOR: Chrysander Edition
!!!AFT: stage1
!!!EED: Frances Bennion
!!!ENC: Frances Bennion
!!!END: 1997/04/15
!!format changes:
!!content changes:
!!public access: complete
!!!CDT: 1653/2/17/-1713/1/8/
!!!OCY: Italia
!!!YEC: Copyright (c) 1994, 2000 Center for Computer Assisted Research in the Humanities
!!!YEM: Rights to all derivative editions reserved.
!!!YEM: Refer to licensing agreement for further details.
!!!YEN: United States of America
!!!KEY: 2999478258
